Extracting Value from Free Text -
…
Installing and loading packages

# Install libraries
install.packages("tidyverse")
install.packages("palmerpenguins")

# Load libraries
library(tidyverse)
library(palmerpenguins)

Examine the data

palmerpenguins::penguins

# A tibble: 344 × 8
   species island    bill_length_mm bill_depth_mm flipper_length_mm body_mass_g
   <fct>   <fct>              <dbl>         <dbl>             <int>       <int>
 1 Adelie  Torgersen           39.1          18.7               181        3750
 2 Adelie  Torgersen           39.5          17.4               186        3800
 3 Adelie  Torgersen           40.3          18                 195        3250
 4 Adelie  Torgersen           NA            NA                  NA          NA
 5 Adelie  Torgersen           36.7          19.3               193        3450
 6 Adelie  Torgersen           39.3          20.6               190        3650
 7 Adelie  Torgersen           38.9          17.8               181        3625
 8 Adelie  Torgersen           39.2          19.6               195        4675
 9 Adelie  Torgersen           34.1          18.1               193        3475
10 Adelie  Torgersen           42            20.2               190        4250
# ℹ 334 more rows
# ℹ 2 more variables: sex <fct>, year <int>
…
What Species are in the data?

unique(penguins$species)

[1] Adelie    Gentoo    Chinstrap
Levels: Adelie Chinstrap Gentoo

How many are Male?

filter(penguins, sex == "male")

# A tibble: 168 × 8
   species island    bill_length_mm bill_depth_mm flipper_length_mm body_mass_g
   <fct>   <fct>              <dbl>         <dbl>             <int>       <int>
 1 Adelie  Torgersen           39.1          18.7               181        3750
 2 Adelie  Torgersen           39.3          20.6               190        3650
 3 Adelie  Torgersen           39.2          19.6               195        4675
 4 Adelie  Torgersen           38.6          21.2               191        3800
 5 Adelie  Torgersen           34.6          21.1               198        4400
 6 Adelie  Torgersen           42.5          20.7               197        4500
 7 Adelie  Torgersen           46            21.5               194        4200
 8 Adelie  Biscoe              37.7          18.7               180        3600
 9 Adelie  Biscoe              38.2          18.1               185        3950
10 Adelie  Biscoe              38.8          17.2               180        3800
# ℹ 158 more rows
# ℹ 2 more variables: sex <fct>, year <int>
…
filter(penguins, sex == "male", island == "biscoe")

# A tibble: 0 × 8
# ℹ 8 variables: species <fct>, island <fct>, bill_length_mm <dbl>,
#   bill_depth_mm <dbl>, flipper_length_mm <int>, body_mass_g <int>, sex <fct>,
#   year <int>

Why no results?

How many are Male on Biscoe island?

filter(penguins, sex == "male", island == "Biscoe")

# A tibble: 83 × 8
   species island bill_length_mm bill_depth_mm flipper_length_mm body_mass_g
   <fct>   <fct>           <dbl>         <dbl>             <int>       <int>
 1 Adelie  Biscoe           37.7          18.7               180        3600
 2 Adelie  Biscoe           38.2          18.1               185        3950
 3 Adelie  Biscoe           38.8          17.2               180        3800
 4 Adelie  Biscoe           40.6          18.6               183        3550
 5 Adelie  Biscoe           40.5          18.9               180        3950
 6 Adelie  Biscoe           40.1          18.9               188        4300
 7 Adelie  Biscoe           42            19.5               200        4050
 8 Adelie  Biscoe           41.4          18.6               191        3700
 9 Adelie  Biscoe           40.6          18.8               193        3800
10 Adelie  Biscoe           37.6          19.1               194        3750
# ℹ 73 more rows
# ℹ 2 more variables: sex <fct>, year <int>

Chaining functions

penguins |> 
  filter(sex == "female") |> 
  arrange(flipper_length_mm)

# A tibble: 165 × 8
   species   island   bill_length_mm bill_depth_mm flipper_length_mm body_mass_g
   <fct>     <fct>             <dbl>         <dbl>             <int>       <int>
 1 Adelie    Biscoe             37.9          18.6               172        3150
 2 Adelie    Biscoe             37.8          18.3               174        3400
 3 Adelie    Torgers…           40.2          17                 176        3450
 4 Adelie    Dream              39.5          16.7               178        3250
 5 Adelie    Dream              33.1          16.1               178        2900
 6 Chinstrap Dream              46.1          18.2               178        3250
 7 Adelie    Dream              42.2          18.5               180        3550
 8 Adelie    Torgers…           38.9          17.8               181        3625
 9 Adelie    Dream              37.6          19.3               181        3300
10 Adelie    Biscoe             36.5          16.6               181        2850
# ℹ 155 more rows
# ℹ 2 more variables: sex <fct>, year <int>

Other ways to filer

Using Boolean operators

# Greater than
penguins |> 
  filter(bill_length_mm > 40)

# A tibble: 242 × 8
   species island    bill_length_mm bill_depth_mm flipper_length_mm body_mass_g
   <fct>   <fct>              <dbl>         <dbl>             <int>       <int>
 1 Adelie  Torgersen           40.3          18                 195        3250
 2 Adelie  Torgersen           42            20.2               190        4250
 3 Adelie  Torgersen           41.1          17.6               182        3200
 4 Adelie  Torgersen           42.5          20.7               197        4500
 5 Adelie  Torgersen           46            21.5               194        4200
 6 Adelie  Biscoe              40.6          18.6               183        3550
 7 Adelie  Biscoe              40.5          17.9               187        3200
 8 Adelie  Biscoe              40.5          18.9               180        3950
 9 Adelie  Dream               40.9          18.9               184        3900
10 Adelie  Dream               42.2          18.5               180        3550
# ℹ 232 more rows
# ℹ 2 more variables: sex <fct>, year <int>

# Greater than or equal to
penguins |> 
  filter(bill_length_mm >= 40)

# A tibble: 242 × 8
   species island    bill_length_mm bill_depth_mm flipper_length_mm body_mass_g
   <fct>   <fct>              <dbl>         <dbl>             <int>       <int>
 1 Adelie  Torgersen           40.3          18                 195        3250
 2 Adelie  Torgersen           42            20.2               190        4250
 3 Adelie  Torgersen           41.1          17.6               182        3200
 4 Adelie  Torgersen           42.5          20.7               197        4500
 5 Adelie  Torgersen           46            21.5               194        4200
 6 Adelie  Biscoe              40.6          18.6               183        3550
 7 Adelie  Biscoe              40.5          17.9               187        3200
 8 Adelie  Biscoe              40.5          18.9               180        3950
 9 Adelie  Dream               40.9          18.9               184        3900
10 Adelie  Dream               42.2          18.5               180        3550
# ℹ 232 more rows
# ℹ 2 more variables: sex <fct>, year <int>
…
# A tibble: 2 × 8
  species island    bill_length_mm bill_depth_mm flipper_length_mm body_mass_g
  <fct>   <fct>              <dbl>         <dbl>             <int>       <int>
1 Adelie  Torgersen             NA            NA                NA          NA
2 Gentoo  Biscoe                NA            NA                NA          NA
# ℹ 2 more variables: sex <fct>, year <int>

# Flipper length is NOT missing/blank
penguins |> 
  filter(!is.na(flipper_length_mm))

# A tibble: 342 × 8
   species island    bill_length_mm bill_depth_mm flipper_length_mm body_mass_g
   <fct>   <fct>              <dbl>         <dbl>             <int>       <int>
 1 Adelie  Torgersen           39.1          18.7               181        3750
 2 Adelie  Torgersen           39.5          17.4               186        3800
 3 Adelie  Torgersen           40.3          18                 195        3250
 4 Adelie  Torgersen           36.7          19.3               193        3450
 5 Adelie  Torgersen           39.3          20.6               190        3650
 6 Adelie  Torgersen           38.9          17.8               181        3625
 7 Adelie  Torgersen           39.2          19.6               195        4675
 8 Adelie  Torgersen           34.1          18.1               193        3475
 9 Adelie  Torgersen           42            20.2               190        4250
10 Adelie  Torgersen           37.8          17.1               186        3300
# ℹ 332 more rows
# ℹ 2 more variables: sex <fct>, year <int>
…
