Extracting Value from Free Text -
…
Count ratings per year

Reviews by year

ratings_by_year <- df |> 
  mutate(Year = year(Year_Month),
         Month = month(Year_Month)) |> 
  group_by(Park) |> 
  count(Year) |> 
  rename(Ratings = n)

ratings_by_year

# A tibble: 29 × 3
# Groups:   Park [3]
   Park        Year Ratings
   <chr>      <dbl>   <int>
 1 California  2011      24
 2 California  2012      59
 3 California  2013      51
 4 California  2014      63
 5 California  2015      83
 6 California  2016      68
 7 California  2017      45
 8 California  2018      36
 9 California  2019      12
10 Hong Kong   2010       1
# ℹ 19 more rows

Reviews by year (an aside)

Reviews by year (an aside)

df

# A tibble: 1,000 × 6
   Review_ID Rating Year_Month Reviewer_Location Review_Text               Park 
       <dbl>  <dbl> <date>     <chr>             <chr>                     <chr>
 1 305683957      5 2015-08-01 Portugal          I  ve previously been to… Cali…
 2 666364898      3 2018-10-01 United States     The Hong Kong Disneyland… Hong…
 3 293082325      3 2015-06-01 United States     My wife, my 15 year old … Paris
 4 334650140      1 2015-11-01 United Kingdom    Our family had the unfor… Paris
 5 393553042      3 2016-07-01 United States     HK Disney is very small … Hong…
 6 175685909      5 2013-08-01 United Kingdom    Nothing but fun fun fun!… Paris
 7 150353289      5 2013-01-01 India             Should not miss the Disn… Hong…
 8 224797068      5 2014-08-01 United Kingdom    everything   i am disney… Paris
 9 310708679      5 2015-04-01 United Kingdom    Wow! What a great experi… Paris
10 126717664      5 2012-03-01 United States     I loved everything! :)  … Cali…
# ℹ 990 more rows

Reviews by year (an aside)

df |>
  mutate(Year = year(Year_Month),
         Month = month(Year_Month))

# A tibble: 1,000 × 8
   Review_ID Rating Year_Month Reviewer_Location Review_Text   Park   Year Month
       <dbl>  <dbl> <date>     <chr>             <chr>         <chr> <dbl> <dbl>
 1 305683957      5 2015-08-01 Portugal          I  ve previo… Cali…  2015     8
 2 666364898      3 2018-10-01 United States     The Hong Kon… Hong…  2018    10
 3 293082325      3 2015-06-01 United States     My wife, my … Paris  2015     6
 4 334650140      1 2015-11-01 United Kingdom    Our family h… Paris  2015    11
 5 393553042      3 2016-07-01 United States     HK Disney is… Hong…  2016     7
 6 175685909      5 2013-08-01 United Kingdom    Nothing but … Paris  2013     8
 7 150353289      5 2013-01-01 India             Should not m… Hong…  2013     1
 8 224797068      5 2014-08-01 United Kingdom    everything  … Paris  2014     8
 9 310708679      5 2015-04-01 United Kingdom    Wow! What a … Paris  2015     4
10 126717664      5 2012-03-01 United States     I loved ever… Cali…  2012     3
# ℹ 990 more rows

Reviews by year (an aside)

df |>
  mutate(Year = year(Year_Month),
         Month = month(Year_Month)) |>
  group_by(Park)

# A tibble: 1,000 × 8
# Groups:   Park [3]
   Review_ID Rating Year_Month Reviewer_Location Review_Text   Park   Year Month
       <dbl>  <dbl> <date>     <chr>             <chr>         <chr> <dbl> <dbl>
 1 305683957      5 2015-08-01 Portugal          I  ve previo… Cali…  2015     8
 2 666364898      3 2018-10-01 United States     The Hong Kon… Hong…  2018    10
 3 293082325      3 2015-06-01 United States     My wife, my … Paris  2015     6
 4 334650140      1 2015-11-01 United Kingdom    Our family h… Paris  2015    11
 5 393553042      3 2016-07-01 United States     HK Disney is… Hong…  2016     7
 6 175685909      5 2013-08-01 United Kingdom    Nothing but … Paris  2013     8
 7 150353289      5 2013-01-01 India             Should not m… Hong…  2013     1
 8 224797068      5 2014-08-01 United Kingdom    everything  … Paris  2014     8
 9 310708679      5 2015-04-01 United Kingdom    Wow! What a … Paris  2015     4
10 126717664      5 2012-03-01 United States     I loved ever… Cali…  2012     3
# ℹ 990 more rows

Reviews by year (an aside)

df |>
  mutate(Year = year(Year_Month),
         Month = month(Year_Month)) |>
  group_by(Park) |>
  count(Year)

# A tibble: 29 × 3
# Groups:   Park [3]
   Park        Year     n
   <chr>      <dbl> <int>
 1 California  2011    24
 2 California  2012    59
 3 California  2013    51
 4 California  2014    63
 5 California  2015    83
 6 California  2016    68
 7 California  2017    45
 8 California  2018    36
 9 California  2019    12
10 Hong Kong   2010     1
# ℹ 19 more rows

Reviews by year (an aside)

df |>
  mutate(Year = year(Year_Month),
         Month = month(Year_Month)) |>
  group_by(Park) |>
  count(Year) |>
  rename(Ratings = n)

# A tibble: 29 × 3
# Groups:   Park [3]
   Park        Year Ratings
   <chr>      <dbl>   <int>
 1 California  2011      24
 2 California  2012      59
 3 California  2013      51
 4 California  2014      63
 5 California  2015      83
 6 California  2016      68
 7 California  2017      45
 8 California  2018      36
 9 California  2019      12
10 Hong Kong   2010       1
# ℹ 19 more rows
…
Most frequent terms

tidy_bigrams |> 
  count(word1, word2, sort = TRUE)

# A tibble: 9,691 × 3
   word1      word2        n
   <chr>      <chr>    <int>
 1 fast       pass       102
 2 disneyland paris       69
 3 disney     world       65
 4 space      mountain    65
 5 hong       kong        64
 6 main       street      52
 7 theme      park        52
 8 fast       passes      48
 9 indiana    jones       44
10 thunder    mountain    42
# ℹ 9,681 more rows
…
AFINN example

AFINN example

tidy_reviews

# A tibble: 45,011 × 3
   Park       linenumber word        
   <chr>           <int> <chr>       
 1 California          1 ve          
 2 California          1 previously  
 3 California          1 3           
 4 California          1 disney      
 5 California          1 resorts     
 6 California          1 expectations
 7 California          1 sky         
 8 California          1 original    
 9 California          1 park        
10 California          1 fulfilled   
# ℹ 45,001 more rows

AFINN example

tidy_reviews |>
  group_by(Park, linenumber)

# A tibble: 45,011 × 3
# Groups:   Park, linenumber [1,000]
   Park       linenumber word        
   <chr>           <int> <chr>       
 1 California          1 ve          
 2 California          1 previously  
 3 California          1 3           
 4 California          1 disney      
 5 California          1 resorts     
 6 California          1 expectations
 7 California          1 sky         
 8 California          1 original    
 9 California          1 park        
10 California          1 fulfilled   
# ℹ 45,001 more rows

AFINN example

tidy_reviews |>
  group_by(Park, linenumber) |>
  inner_join(get_sentiments("afinn"))

# A tibble: 5,209 × 4
# Groups:   Park, linenumber [936]
   Park       linenumber word        value
   <chr>           <int> <chr>       <dbl>
 1 California          1 fulfilled       2
 2 California          1 feeling         1
 3 California          1 miss           -2
 4 California          1 attractions     2
 5 California          1 haunted        -2
 6 California          2 loved           3
 7 California          3 excited         3
 8 California          3 super           3
 9 California          3 happy           3
10 California          4 easy            1
# ℹ 5,199 more rows

AFINN example

tidy_reviews |>
  group_by(Park, linenumber) |>
  inner_join(get_sentiments("afinn")) |>
  summarise(value = sum(value))

# A tibble: 936 × 3
# Groups:   Park [3]
   Park       linenumber value
   <chr>           <int> <dbl>
 1 California          1     1
 2 California          2     3
 3 California          3     9
 4 California          4     5
 5 California          5     5
 6 California          6     5
 7 California          7     2
 8 California         10     3
 9 California         11     5
10 California         12    10
# ℹ 926 more rows

AFINN example

tidy_reviews |>
  group_by(Park, linenumber) |>
  inner_join(get_sentiments("afinn")) |>
  summarise(value = sum(value)) |>
  ungroup()

# A tibble: 936 × 3
   Park       linenumber value
   <chr>           <int> <dbl>
 1 California          1     1
 2 California          2     3
 3 California          3     9
 4 California          4     5
 5 California          5     5
 6 California          6     5
 7 California          7     2
 8 California         10     3
 9 California         11     5
10 California         12    10
# ℹ 926 more rows
…
bing example

bing example

tidy_reviews

# A tibble: 45,011 × 3
   Park       linenumber word        
   <chr>           <int> <chr>       
 1 California          1 ve          
 2 California          1 previously  
 3 California          1 3           
 4 California          1 disney      
 5 California          1 resorts     
 6 California          1 expectations
 7 California          1 sky         
 8 California          1 original    
 9 California          1 park        
10 California          1 fulfilled   
# ℹ 45,001 more rows

bing example

tidy_reviews |>
  group_by(Park)

# A tibble: 45,011 × 3
# Groups:   Park [3]
   Park       linenumber word        
   <chr>           <int> <chr>       
 1 California          1 ve          
 2 California          1 previously  
 3 California          1 3           
 4 California          1 disney      
 5 California          1 resorts     
 6 California          1 expectations
 7 California          1 sky         
 8 California          1 original    
 9 California          1 park        
10 California          1 fulfilled   
# ℹ 45,001 more rows

bing example

tidy_reviews |>
  group_by(Park) |>
  inner_join(get_sentiments("bing"))

# A tibble: 6,468 × 4
# Groups:   Park [3]
   Park       linenumber word        sentiment
   <chr>           <int> <chr>       <chr>    
 1 California          1 magical     positive 
 2 California          1 miss        negative 
 3 California          1 astonishing positive 
 4 California          2 loved       positive 
 5 California          3 excited     positive 
 6 California          3 super       positive 
 7 California          3 happy       positive 
 8 California          4 easy        positive 
 9 California          4 properly    positive 
10 California          4 fast        positive 
# ℹ 6,458 more rows

bing example

tidy_reviews |>
  group_by(Park) |>
  inner_join(get_sentiments("bing")) |>
  count(Park, index = linenumber, sentiment)

# A tibble: 1,588 × 4
# Groups:   Park [3]
   Park       index sentiment     n
   <chr>      <int> <chr>     <int>
 1 California     1 negative      1
 2 California     1 positive      2
 3 California     2 positive      1
 4 California     3 positive      3
 5 California     4 negative      1
 6 California     4 positive      4
 7 California     5 positive      2
 8 California     6 negative      1
 9 California     6 positive      4
10 California     7 positive      1
# ℹ 1,578 more rows

bing example

tidy_reviews |>
  group_by(Park) |>
  inner_join(get_sentiments("bing")) |>
  count(Park, index = linenumber, sentiment) |>
  ungroup()

# A tibble: 1,588 × 4
   Park       index sentiment     n
   <chr>      <int> <chr>     <int>
 1 California     1 negative      1
 2 California     1 positive      2
 3 California     2 positive      1
 4 California     3 positive      3
 5 California     4 negative      1
 6 California     4 positive      4
 7 California     5 positive      2
 8 California     6 negative      1
 9 California     6 positive      4
10 California     7 positive      1
# ℹ 1,578 more rows

bing example

tidy_reviews |>
  group_by(Park) |>
  inner_join(get_sentiments("bing")) |>
  count(Park, index = linenumber, sentiment) |>
  ungroup() |>
  pivot_wider(
    names_from = sentiment,
    values_from = n,
    values_fill = 0
  )

# A tibble: 970 × 4
   Park       index negative positive
   <chr>      <int>    <int>    <int>
 1 California     1        1        2
 2 California     2        0        1
 3 California     3        0        3
 4 California     4        1        4
 5 California     5        0        2
 6 California     6        1        4
 7 California     7        0        1
 8 California     8        1        1
 9 California    10        0        1
10 California    11        0        2
# ℹ 960 more rows
bing example

tidy_reviews |>
  group_by(Park) |>
  inner_join(get_sentiments("bing")) |>
  count(Park, index = linenumber, sentiment) |>
  ungroup() |>
  pivot_wider(
    names_from = sentiment,
    values_from = n,
    values_fill = 0
  ) |>
  mutate(sentiment = positive - negative)

# A tibble: 970 × 5
   Park       index negative positive sentiment
   <chr>      <int>    <int>    <int>     <int>
 1 California     1        1        2         1
 2 California     2        0        1         1
 3 California     3        0        3         3
 4 California     4        1        4         3
 5 California     5        0        2         2
 6 California     6        1        4         3
 7 California     7        0        1         1
 8 California     8        1        1         0
 9 California    10        0        1         1
10 California    11        0        2         2
# ℹ 960 more rows
…
nrc example

nrc example

tidy_reviews

# A tibble: 45,011 × 3
   Park       linenumber word        
   <chr>           <int> <chr>       
 1 California          1 ve          
 2 California          1 previously  
 3 California          1 3           
 4 California          1 disney      
 5 California          1 resorts     
 6 California          1 expectations
 7 California          1 sky         
 8 California          1 original    
 9 California          1 park        
10 California          1 fulfilled   
# ℹ 45,001 more rows

nrc example

tidy_reviews |>
  right_join(get_sentiments("nrc"),
             relationship = "many-to-many")

# A tibble: 34,430 × 4
   Park       linenumber word    sentiment   
   <chr>           <int> <chr>   <chr>       
 1 California          1 sky     positive    
 2 California          1 magical anticipation
 3 California          1 magical joy         
 4 California          1 magical positive    
 5 California          1 magical surprise    
 6 California          1 feeling anger       
 7 California          1 feeling anticipation
 8 California          1 feeling disgust     
 9 California          1 feeling fear        
10 California          1 feeling joy         
# ℹ 34,420 more rows

nrc example

tidy_reviews |>
  right_join(get_sentiments("nrc"),
             relationship = "many-to-many") |>
  filter(!is.na(sentiment))

# A tibble: 34,430 × 4
   Park       linenumber word    sentiment   
   <chr>           <int> <chr>   <chr>       
 1 California          1 sky     positive    
 2 California          1 magical anticipation
 3 California          1 magical joy         
 4 California          1 magical positive    
 5 California          1 magical surprise    
 6 California          1 feeling anger       
 7 California          1 feeling anticipation
 8 California          1 feeling disgust     
 9 California          1 feeling fear        
10 California          1 feeling joy         
# ℹ 34,420 more rows
…
